

shader			= { "LightmapLitBlend.fx" }	--FX 파일이름

textures =
{
 g_BaseTexture = { "../../textures/map/blend_is_rock01.dds" },		-- 텍스처 1 (버텍스알파 흰색)
 g_BaseTexture2 = { "../../textures/map/1school_hn_grass01.dds" },	        -- 텍스처 2
}

parameters = 
{
g_fRotate_UV = { 0 },   				-- 텍스처2 회전각 입력 (기본 0)
g_fScaleFactor = { 1 },				-- 텍스처2 크기배수조절  (기본 1)
}


-- [	사	용	법        ]
-- 버텍스알파색상(흰색, 검정색) 으로 2개의 텍스처를 텍스처를 블렌딩함 
-- 버텍스알파 (1:흰색)	-> 텍스처1번 렌더링
-- 버텍스알파 (0:검정색)	-> 텍스처2번 렌더링
-- 텍스처 경로를 표기할때 이전 경로는 ../ 로 찾아간다.
-- 3ds MAX에선 버텍스알파값이 0~100으로 설정되며, 기본적으로 100으로 셋팅되어 있다.
