

shader			= { "LightmapLitBlendNM2.fx" }	--FX 파일이름

textures =
{
 g_BaseTexture = { "../../textures/map/Sand02_D.dds" },		-- 텍스처 1 (버텍스알파 흰색)
 g_MaskTexture = { "../../textures/map/Sand02_D_mask.DDS" },			-- 텍스처 1 마스크

 g_BaseTexture2 = { "../../textures/map/la_sand_D.DDS" },		-- 텍스처 2
 g_MaskTexture_2nd = { "../../textures/map/la_sand_D_mask.DDS" },	-- 텍스처 2 마스크
}

parameters = 
{
g_fRotate_UV = { 0 },   				-- 텍스처2 회전각 입력 (기본 0)
g_fScaleFactor = { 1 },				-- 텍스처2 크기배수조절  (기본 1)
g_fSpecularPower1 = { 0 },	-- 스펙큘러 광택도	옵션 상, 최상에서만 보임
g_fSpecularIntensity1 = { 0 },	-- 스펙큘러 세기	옵션 상, 최상에서만 보임
g_fSpecularPower2 = { 0 },	-- 스펙큘러 광택도	옵션 상, 최상에서만 보임
g_fSpecularIntensity2 = { 0 },	-- 스펙큘러 세기	옵션 상, 최상에서만 보임
}


-- [	사	용	법        ]
-- 버텍스알파색상(흰색, 검정색) 으로 2개의 텍스처를 텍스처를 블렌딩함 
-- 버텍스알파 (1:흰색)	-> 텍스처1번 렌더링
-- 버텍스알파 (0:검정색)	-> 텍스처2번 렌더링
-- 텍스처 경로를 표기할때 이전 경로는 ../ 로 찾아간다.
-- 3ds MAX에선 버텍스알파값이 0~100으로 설정되며, 기본적으로 100으로 셋팅되어 있다.
-- g_MaskTexture ( AG-NormalMap, R-Specular, B-CubeMap )
