

shader			= { "WaterCube.fx" }	--FX 파일이름

surfaceprop		= { "water" }

textures =
{
 g_BaseTexture = { "../../textures/map/waterClean01.dds" },		-- 텍스처 1 (기본텍스쳐)
 g_NormalTexture = { "../../textures/effect/waterdot3_256.tga" },	-- 텍스처 2 (흔들림텍스쳐)
}

cubetextures =
{
 g_CubeTexture = { "../../data/materials/gz_waterCubemap01_cm.dds" },		-- 큐브 텍스처 1 (기본텍스쳐)
}

parameters = 
{
 g_vReflectPower = { 0.6, 0.7 },  -- 반사강도(RGB) , ( A )
 g_fWaveDensity = { 0.8 },		-- 잔물결 밀도 ( 수치가 클 수록 세세하게 변한다. )
 g_fWaveScale = { 0.02 },		-- 흐려짐의 세기 ( 수치가 클 수록 흐려지게 보인다. )
 g_fWaveSpeed = { 0.01 },		-- 흔들림 Speed
 g_vMoveSpeed = { 0, 0 },		-- Flow 되는 방향 (UV값) ( 스피드도 여기에서 제어됨. ) 
}


-- [	사	용	법        ]
-- g_BaseTexture 저사양에서만 쓰임.
-- g_CubeTexture 는 툴에서 만들어진 CubeTexture 이여야 함.
