

shader			= { "WaterStreamADD.fx" }	--FX 파일이름

surfaceprop		= { "stream" }

textures =
{
 g_BaseTexture = { "../../textures/map/waterClean01.dds" },		-- 텍스처 1 (기본텍스쳐)
 g_BaseTexture2 = { "../../textures/map/waterfall_002.dds" },	-- 텍스처 2 (기본텍스쳐2)
}

parameters = 
{
 g_fImageScale0 = { 1.5 },  	-- 이미즈 사이즈 ( 수치가 클 수록 작아진다.. )
 g_fImageScale1 = { 2 },	-- 이미즈 사이즈 ( 수치가 클 수록 작아진다.. )
 g_vMoveSpeed0 = { 0,-1.5 },	-- 이동 세기
 g_vMoveSpeed1 = { 0, -1.2 },	-- 이동 세기
 g_fColorPower0 = { 0.25 },	-- 색 강도
 g_fColorPower1 = { 1 },	-- 색 강도
}


-- [	사	용	법    ]